Cleaning Data | Statistical Analysis in Sociology
…
For this analysis, we will use the same data extract from the American Community Survey that we used for the reading and writing data lab. I downloaded this extract from IPUMS. You can download the file here. You can also view the codebook that IPUMS provides

The data is a sample of individuals in the US. In the read_fwf command below, I am only going to read in a few variables that we will use for our data cleaning examples.

acs <- read_fwf("resources/usa_00084.dat.gz", 
                col_positions = fwf_positions(start = c(1,55,84,85,88,94),
                                              end   = c(4,56,84,87,91,96),
                                              col_names = c("year","statefip","sex",
                                                            "age","yrmarr","educd")),
                col_types = cols(.default = "i"), 
                progress = FALSE)
acs

## # A tibble: 3,214,539 x 6
##     year statefip   sex   age yrmarr educd
##    <int>    <int> <int> <int>  <int> <int>
##  1  2018        1     2    19      0    65
##  2  2018        1     2    18      0    65
##  3  2018        1     1    53      0    64
##  4  2018        1     1    28      0    71
##  5  2018        1     2    25      0    30
##  6  2018        1     2    30      0    63
##  7  2018        1     2    66   1992    71
##  8  2018        1     1    38      0    30
##  9  2018        1     1    41      0    63
## 10  2018        1     2    18      0    65
## # … with 3,214,529 more rows
…
The most important argument to the cut function is the breakpoints for each interval. Here I have used the seq function to define a sequence of numbers from 0 to 100 at intervals of 10. I also specify right=FALSE so that the intervals are inclusive of the lower value and exclusive of the upper value. The age_group variable is now a proper factor variable and can be used like any other factor variable.

After Cleaning You Still Need to Tidy

Because you are adding new variables as you recode, the size of your dataset will often grow as you clean, organize, and re-code. This can quickly lead to a lot of clutter and this clutter can have consequences. When you have multiple variables with similar names, it is easy to mistakenly use the wrong one. To avoid confusion, it is always best to limit your final analytical dataset to just the variables that you want. The easiest way to do this in R is to put a subset command at the bottom of your organizational script and use the select argument to add variables you want to keep to it as you clean them. So, for example my command here might look like:

acs <- subset(acs, 
              select=c("statefip","gender","edattain","age_marr","age"))
acs

## # A tibble: 3,214,539 x 5
##    statefip gender edattain     age_marr   age
##       <int> <fct>  <fct>           <int> <int>
##  1        1 Female Some College       NA    19
##  2        1 Female Some College       NA    18
##  3        1 Male   HS Diploma         NA    53
##  4        1 Male   Some College       NA    28
##  5        1 Female Less than HS       NA    25
##  6        1 Female HS Diploma         NA    30
##  7        1 Female Some College       40    66
##  8        1 Male   Less than HS       NA    38
##  9        1 Male   HS Diploma         NA    41
## 10        1 Female Some College       NA    18
## # … with 3,214,529 more rows
…
