Reading and Writing Data | Statistical Analysis in Sociology
…
I don’t need all of these variables. Some of them are just defaults that come with every IPUMS extract like HHWT, CLUSTER, and STRATA. For my purposes, lets say I only want the variables of STATEFIP, YEAR, SEX, AGE, YRMARR, and EDUCD. Using read_fwf, I can just skip the indices of variables I don’t need. Another nice feature of the readr package is that all of the functions can read directly directly from zipped data, which saves me room on my computer and my git repository (GitHub has a limit of 100MB for files). Here is my command to read in the data:

acs <- read_fwf("resources/usa_00084.dat.gz", 
                col_positions = fwf_positions(start = c(1,55,84,85,88,94),
                                              end   = c(4,56,84,87,91,96),
                                              col_names = c("year","statefip","sex",
                                                            "age","yrmarr","educd")),
                col_types = cols(.default = "i"), 
                progress = FALSE)
acs

## # A tibble: 3,214,539 x 6
##     year statefip   sex   age yrmarr educd
##    <int>    <int> <int> <int>  <int> <int>
##  1  2018        1     2    19      0    65
##  2  2018        1     2    18      0    65
##  3  2018        1     1    53      0    64
##  4  2018        1     1    28      0    71
##  5  2018        1     2    25      0    30
##  6  2018        1     2    30      0    63
##  7  2018        1     2    66   1992    71
##  8  2018        1     1    38      0    30
##  9  2018        1     1    41      0    63
## 10  2018        1     2    18      0    65
## # … with 3,214,529 more rows
…
