Model Complications
…
---

## Using `broom` and `augment` to get model data

```r
library(broom)
model <- lm(lifeExp~gdpPercap, data=subset(gapminder, year==2007))
augment(model)
```

```
## # A tibble: 142 x 9
##    lifeExp gdpPercap .fitted .se.fit  .resid    .hat .sigma   .cooksd .std.resid
##      <dbl>     <dbl>   <dbl>   <dbl>   <dbl>   <dbl>  <dbl>     <dbl>      <dbl>
##  1    43.8      975.    60.2   0.973 -16.4   0.0120    8.82 0.0207       -1.85  
##  2    76.4     5937.    63.3   0.818  13.1   0.00846   8.86 0.00928       1.48  
##  3    72.3     6223.    63.5   0.812   8.77  0.00832   8.90 0.00411       0.990 
##  4    42.7     4797.    62.6   0.848 -19.9   0.00907   8.77 0.0231       -2.25  
##  5    75.3    12779.    67.7   0.750   7.61  0.00709   8.91 0.00263       0.858 
##  6    81.2    34435.    81.5   1.52   -0.271 0.0292    8.93 0.0000144    -0.0309
##  7    79.8    36126.    82.6   1.61   -2.75  0.0327    8.93 0.00167      -0.315 
##  8    75.6    29796.    78.5   1.29   -2.91  0.0211    8.93 0.00118      -0.331 
##  9    64.1     1391.    60.5   0.958   3.61  0.0116    8.93 0.000975      0.408 
## 10    79.4    33693.    81.0   1.48   -1.59  0.0278    8.93 0.000471     -0.181 
## # … with 132 more rows
```
…
